
{"list":[{"id":64304,"title":"T- 日焼け部活美少女猥褻レ●プ 深田みお 葉月桃 美甘りか","type1":"口交","type2":"口交","img":"https://tu.91zytu.com/images/2020/3/11/kj9037.jpg","link":"/show-13608.html","source_site":"35zy1","video":"https://www2.800-cdn.com/20200308/6xBJkenS/index.m3u8","status":1,"is_html":0,"date":"2020-03-09T16:00:00.000Z","created":"2020-03-10T22:00:07.000Z"},{"id":64303,"title":"ほろ酔い女子社員「疲れた女は酒に弱い」退勤後に酒で●っぱらい、淫らにスーツを脱ぎ","type1":"DMM独家","type2":"DMM独家","img":"https://tu.91zytu.com/images/2020/3/11/dmm9044.jpg","link":"/show-13609.html","source_site":"35zy1","video":"https://www2.800-cdn.com/20200308/TzbQRHFV/index.m3u8","status":1,"is_html":0,"date":"2020-03-09T16:00:00.000Z","created":"2020-03-10T22:00:07.000Z"},{"id":64302,"title":"カテキョ女にクレームつけたら「会社にバレたくないんです」と示談交渉してきた。","type1":"美少女","type2":"美少女","img":"https://tu.91zytu.com/images/2020/3/11/msn9018.jpg","link":"/show-13606.html","source_site":"35zy1","video":"https://www2.800-cdn.com/20200308/0N2PcLic/index.m3u8","status":1,"is_html":0,"date":"2020-03-09T16:00:00.000Z","created":"2020-03-10T22:00:07.000Z"},{"id":64301,"title":"敏感メイドを絶叫調教！ イクたびにお仕置き倍速ピストンで追撃オーガズム 渚みつき","type1":"DMM独家","type2":"DMM独家","img":"https://tu.91zytu.com/images/2020/3/11/dmm9047.jpg","link":"/show-13605.html","source_site":"35zy1","video":"https://www2.800-cdn.com/20200308/9aDTd8qd/index.m3u8","status":1,"is_html":0,"date":"2020-03-09T16:00:00.000Z","created":"2020-03-10T22:00:07.000Z"},{"id":64300,"title":"美神【ヴィーナス】の究極筆おろし ど緊張の童貞たちを夢のような射精へ導く看護師の","type1":"DMM独家","type2":"DMM独家","img":"https://tu.91zytu.com/images/2020/3/11/dmm9046.jpg","link":"/show-13607.html","source_site":"35zy1","video":"https://www2.800-cdn.com/20200308/MIeFsGI9/index.m3u8","status":1,"is_html":0,"date":"2020-03-09T16:00:00.000Z","created":"2020-03-10T22:00:07.000Z"},{"id":64299,"title":"素人お嬢さん ラップ1枚隔てて弟とディープキスしてみませんか？","type1":"美少女","type2":"美少女","img":"https://tu.91zytu.com/images/2020/3/11/msn9019.jpg","link":"/show-13604.html","source_site":"35zy1","video":"https://www2.800-cdn.com/20200308/595EfNPt/index.m3u8","status":1,"is_html":0,"date":"2020-03-09T16:00:00.000Z","created":"2020-03-10T22:00:06.000Z"},{"id":64298,"title":"温泉遊郭の遊女 ～女郎あやねの一生～ 悠木あやね","type1":"口交","type2":"口交","img":"https://tu.91zytu.com/images/2020/3/11/kj9030.jpg","link":"/show-13601.html","source_site":"35zy1","video":"https://www2.800-cdn.com/20200308/rSqZPfXJ/index.m3u8","status":1,"is_html":0,"date":"2020-03-09T16:00:00.000Z","created":"2020-03-10T22:00:06.000Z"},{"id":64297,"title":"ほろ酔いSEX 長谷川みく","type1":"美少女","type2":"美少女","img":"https://tu.91zytu.com/images/2020/3/11/msn9020.jpg","link":"/show-13602.html","source_site":"35zy1","video":"https://www2.800-cdn.com/20200308/574z0zpE/index.m3u8","status":1,"is_html":0,"date":"2020-03-09T16:00:00.000Z","created":"2020-03-10T22:00:06.000Z"},{"id":64296,"title":"カーテン越しのパパには秘密 親孝行セレブ令嬢が声を押し殺す性感オイルマッサージ","type1":"美少女","type2":"美少女","img":"https://tu.91zytu.com/images/2020/3/11/msn9021.jpg","link":"/show-13600.html","source_site":"35zy1","video":"https://www2.800-cdn.com/20200308/6JtfQ0z1/index.m3u8","status":1,"is_html":0,"date":"2020-03-09T16:00:00.000Z","created":"2020-03-10T22:00:06.000Z"},{"id":64295,"title":"初撮り六十路妻ドキュメント 原田京子","type1":"口交","type2":"口交","img":"https://tu.91zytu.com/images/2020/3/11/kj9029.jpg","link":"/show-13603.html","source_site":"35zy1","video":"https://www2.800-cdn.com/20200308/JpIpBLOa/index.m3u8","status":1,"is_html":0,"date":"2020-03-09T16:00:00.000Z","created":"2020-03-10T22:00:06.000Z"},{"id":64294,"title":"【配信専用】【妄想主観】恥じらいと興奮が交差する腋フェチイメクラ！一条みお","type1":"DMM独家","type2":"DMM独家","img":"https://tu.91zytu.com/images/2020/3/11/dmm9039.jpg","link":"/show-13596.html","source_site":"35zy1","video":"https://www2.800-cdn.com/20200308/AjNKIfbq/index.m3u8","status":1,"is_html":0,"date":"2020-03-09T16:00:00.000Z","created":"2020-03-10T22:00:06.000Z"},{"id":64293,"title":"PARATHD- 街で見かけたノーブラ乳首ぽっち娘をナンパ（2）","type1":"口交","type2":"口交","img":"https://tu.91zytu.com/images/2020/3/11/kj9032.jpg","link":"/show-13599.html","source_site":"35zy1","video":"https://www2.800-cdn.com/20200308/uW7L8Djc/index.m3u8","status":1,"is_html":0,"date":"2020-03-09T16:00:00.000Z","created":"2020-03-10T22:00:06.000Z"},{"id":64292,"title":"【配信専用】【妄想主観】広島弁がぶち可愛いお姉ちゃんメイド 七瀬ひな","type1":"DMM独家","type2":"DMM独家","img":"https://tu.91zytu.com/images/2020/3/11/dmm9038.jpg","link":"/show-13598.html","source_site":"35zy1","video":"https://www2.800-cdn.com/20200308/pi3Ws6Ub/index.m3u8","status":1,"is_html":0,"date":"2020-03-09T16:00:00.000Z","created":"2020-03-10T22:00:05.000Z"},{"id":64291,"title":"SPRD- ベロキス義父に私の方が欲求不満です… 息子の嫁と義父 梨々花","type1":"口交","type2":"口交","img":"https://tu.91zytu.com/images/2020/3/11/kj9033.jpg","link":"/show-13595.html","source_site":"35zy1","video":"https://www2.800-cdn.com/20200308/b61BzXEv/index.m3u8","status":1,"is_html":0,"date":"2020-03-09T16:00:00.000Z","created":"2020-03-10T22:00:05.000Z"},{"id":64290,"title":"日焼けあと残る水泳部エースの肉体美 浜田理丘","type1":"美少女","type2":"美少女","img":"https://tu.91zytu.com/images/2020/3/11/msn9022.jpg","link":"/show-13597.html","source_site":"35zy1","video":"https://www2.800-cdn.com/20200308/klz69VKT/index.m3u8","status":1,"is_html":0,"date":"2020-03-09T16:00:00.000Z","created":"2020-03-10T22:00:05.000Z"},{"id":64289,"title":"レズ Wキャスト 3 湊莉久 葵こはる","type1":"美少女","type2":"美少女","img":"https://tu.91zytu.com/images/2020/3/11/msn9023.jpg","link":"/show-13594.html","source_site":"35zy1","video":"https://www2.800-cdn.com/20200308/MKRXdM15/index.m3u8","status":1,"is_html":0,"date":"2020-03-09T16:00:00.000Z","created":"2020-03-10T22:00:05.000Z"},{"id":64288,"title":"神アプリで知り合ったエロカワ現役女子大生に生中出し","type1":"口交","type2":"口交","img":"https://tu.91zytu.com/images/2020/3/11/kj9035.jpg","link":"/show-13589.html","source_site":"35zy1","video":"https://www2.800-cdn.com/20200308/2XtlRkl6/index.m3u8","status":1,"is_html":0,"date":"2020-03-09T16:00:00.000Z","created":"2020-03-10T22:00:05.000Z"},{"id":64287,"title":"精子採取ゲームに挑戦！素人3名（樹希ちゃん、ねねちゃん、聖来ちゃん）が賞金のため","type1":"DMM独家","type2":"DMM独家","img":"https://tu.91zytu.com/images/2020/3/11/dmm9041.jpg","link":"/show-13593.html","source_site":"35zy1","video":"https://www2.800-cdn.com/20200308/77QrUsP9/index.m3u8","status":1,"is_html":0,"date":"2020-03-09T16:00:00.000Z","created":"2020-03-10T22:00:05.000Z"},{"id":64286,"title":"SPRD- 再婚相手より前の年増な女房がやっぱいいや… 石井麻奈美","type1":"口交","type2":"口交","img":"https://tu.91zytu.com/images/2020/3/11/kj9034.jpg","link":"/show-13592.html","source_site":"35zy1","video":"https://www2.800-cdn.com/20200308/uFO4Dz5q/index.m3u8","status":1,"is_html":0,"date":"2020-03-09T16:00:00.000Z","created":"2020-03-10T22:00:05.000Z"},{"id":64285,"title":"精子採取ゲームに挑戦！素人4名（琴乃ちゃん、あいりちゃん、このみちゃん、あすなち","type1":"DMM独家","type2":"DMM独家","img":"https://tu.91zytu.com/images/2020/3/11/dmm9042.jpg","link":"/show-13590.html","source_site":"35zy1","video":"https://www2.800-cdn.com/20200308/xN9sxnFX/index.m3u8","status":1,"is_html":0,"date":"2020-03-09T16:00:00.000Z","created":"2020-03-10T22:00:05.000Z"},{"id":64284,"title":"絶頂イキすると大量オシッコ潮リットル噴射する衝撃スケベ体質貞淑美人妻の本性は淫乱","type1":"美少女","type2":"美少女","img":"https://tu.91zytu.com/images/2020/3/11/msn9027.jpg","link":"/show-13587.html","source_site":"35zy1","video":"https://www2.800-cdn.com/20200308/VAIi0lk8/index.m3u8","status":1,"is_html":0,"date":"2020-03-09T16:00:00.000Z","created":"2020-03-10T22:00:04.000Z"},{"id":64283,"title":"螺旋の被虐 カリスマショップ店員の悲劇 水谷心音","type1":"美少女","type2":"美少女","img":"https://tu.91zytu.com/images/2020/3/11/msn9024.jpg","link":"/show-13591.html","source_site":"35zy1","video":"https://www2.800-cdn.com/20200308/LgkVlTFO/index.m3u8","status":1,"is_html":0,"date":"2020-03-09T16:00:00.000Z","created":"2020-03-10T22:00:04.000Z"},{"id":64282,"title":"ほろ酔い女子社員「疲れた女は酒に弱い」退勤後に酒で●っぱらい、淫らにスーツを脱ぎ","type1":"DMM独家","type2":"DMM独家","img":"https://tu.91zytu.com/images/2020/3/11/dmm9043.jpg","link":"/show-13588.html","source_site":"35zy1","video":"https://www2.800-cdn.com/20200308/ajpRi029/index.m3u8","status":1,"is_html":0,"date":"2020-03-09T16:00:00.000Z","created":"2020-03-10T22:00:04.000Z"},{"id":64261,"title":"SPRD- 婿に抱かれた義母 安立ゆうこ","type1":"首次亮相","type2":"首次亮相","img":"https://tu.91zytu.com/images/2020/3/10/sclx8987.jpg","link":"/show-13581.html","source_site":"35zy1","video":"https://www2.800-cdn.com/20200307/AfbMMOQS/index.m3u8","status":1,"is_html":0,"date":"2020-03-08T16:00:00.000Z","created":"2020-03-09T22:00:07.000Z"}],"page":{"first_page_url":"./1.html","prev_page_url":"./1.html","next_page_url":"./2.html","last_page_url":"./2428.html","current_page":1,"last_page":2428,"total":58266,"length":24}}